{
   "object_kind": "pipeline",
   "object_attributes":{
      "id": 1,
      "status": "success",
      "stages":[
         "build",
         "sign"
      ],
      "duration": 63,
      "variables": [
        {
          "key": "VERSION",
          "value": "lineage-15.1"
        },
        {
          "key": "DEVICE",
          "value": "mako"
        },
        {
          "key": "TYPE",
          "value": "userdebug"
        }
      ]
   },
   "builds":[
      {
         "id": 380,
         "stage": "build",
         "name": "build",
         "status": "success",
         "created_at": "2016-08-12 15:23:28 UTC",
         "when": "manual",
         "manual": true,
         "user":{
            "name": "Administrator",
            "username": "root",
            "avatar_url": ""
         },
         "runner": null
      },
      {
         "id": 377,
         "stage": "sign",
         "name": "sign",
         "status": "success",
         "created_at": "2016-08-12 15:23:28 UTC",
         "runner": null
      }
   ]
}
