{
  "object_kind": "pipeline",
  "object_attributes": {
    "id": 34618162,
    "ref": "master",
    "tag": false,
    "sha": "e36217f9fbf04f7ac7024a7909332c0e0e2c1599",
    "before_sha": "0000000000000000000000000000000000000000",
    "status": "success",
    "detailed_status": "passed",
    "stages": [
      "build",
      "sign"
    ],
    "created_at": "2018-10-29 00:01:33 UTC",
    "finished_at": "2018-10-29 00:12:16 UTC",
    "duration": 81,
    "variables": [
      {
        "key": "DEVICE",
        "value": "FAKE_TEST"
      },
      {
        "key": "TYPE",
        "value": "userdebug"
      },
      {
        "key": "VERSION",
        "value": "lineage-15.1"
      }
    ]
  },
  "user": {
    "name": "Tom Powell",
    "username": "zifnab06",
    "avatar_url": "https://secure.gravatar.com/avatar/40b74a6668897c1bbc7849defa0559ce?s=80&d=identicon"
  },
  "project": {
    "id": 9081391,
    "name": "android",
    "description": "",
    "web_url": "https://gitlab.com/LineageOS/builder/android",
    "avatar_url": null,
    "git_ssh_url": "git@gitlab.com:LineageOS/builder/android.git",
    "git_http_url": "https://gitlab.com/LineageOS/builder/android.git",
    "namespace": "LineageOS Builder",
    "visibility_level": 20,
    "path_with_namespace": "LineageOS/builder/android",
    "default_branch": "master",
    "ci_config_path": ""
  },
  "commit": {
    "id": "e36217f9fbf04f7ac7024a7909332c0e0e2c1599",
    "message": "sleep is for the weak\\n",
    "timestamp": "2018-10-27T07:26:39Z",
    "url": "https://gitlab.com/LineageOS/builder/android/commit/e36217f9fbf04f7ac7024a7909332c0e0e2c1599",
    "author": {
      "name": "Tom Powell",
      "email": "tom@powell.io"
    }
  },
  "builds": [
    {
      "id": 113643062,
      "stage": "build",
      "name": "build",
      "status": "success",
      "created_at": "2018-10-29 00:11:14 UTC",
      "started_at": "2018-10-29 00:11:15 UTC",
      "finished_at": "2018-10-29 00:12:16 UTC",
      "when": "on_success",
      "manual": false,
      "user": {
        "name": "Tom Powell",
        "username": "zifnab06",
        "avatar_url": "https://secure.gravatar.com/avatar/40b74a6668897c1bbc7849defa0559ce?s=80&d=identicon"
      },
      "runner": {
        "id": 530365,
        "description": "phenom-test",
        "active": true,
        "is_shared": false
      },
      "artifacts_file": {
        "filename": null,
        "size": 0
      }
    },
    {
      "id": 113642275,
      "stage": "build",
      "name": "build",
      "status": "success",
      "created_at": "2018-10-29 00:03:41 UTC",
      "started_at": "2018-10-29 00:03:41 UTC",
      "finished_at": "2018-10-29 00:04:42 UTC",
      "when": "on_success",
      "manual": false,
      "user": {
        "name": "Tom Powell",
        "username": "zifnab06",
        "avatar_url": "https://secure.gravatar.com/avatar/40b74a6668897c1bbc7849defa0559ce?s=80&d=identicon"
      },
      "runner": {
        "id": 530365,
        "description": "phenom-test",
        "active": true,
        "is_shared": false
      },
      "artifacts_file": {
        "filename": null,
        "size": 1075
      }
    },
    {
      "id": 113642098,
      "stage": "build",
      "name": "build",
      "status": "success",
      "created_at": "2018-10-29 00:01:33 UTC",
      "started_at": "2018-10-29 00:01:33 UTC",
      "finished_at": "2018-10-29 00:02:35 UTC",
      "when": "on_success",
      "manual": false,
      "user": {
        "name": "Tom Powell",
        "username": "zifnab06",
        "avatar_url": "https://secure.gravatar.com/avatar/40b74a6668897c1bbc7849defa0559ce?s=80&d=identicon"
      },
      "runner": {
        "id": 530365,
        "description": "phenom-test",
        "active": true,
        "is_shared": false
      },
      "artifacts_file": {
        "filename": null,
        "size": 1075
      }
    },
    {
      "id": 113642099,
      "stage": "sign",
      "name": "sign",
      "status": "success",
      "created_at": "2018-10-29 00:01:33 UTC",
      "started_at": "2018-10-29 00:02:35 UTC",
      "finished_at": "2018-10-29 00:02:55 UTC",
      "when": "on_success",
      "manual": false,
      "user": {
        "name": "Tom Powell",
        "username": "zifnab06",
        "avatar_url": "https://secure.gravatar.com/avatar/40b74a6668897c1bbc7849defa0559ce?s=80&d=identicon"
      },
      "runner": {
        "id": 380987,
        "description": "shared-runners-manager-6.gitlab.com",
        "active": true,
        "is_shared": true
      },
      "artifacts_file": {
        "filename": null,
        "size": 1345
      }
    }
  ]
}
